sim/log/reg_1hot_chk.log
# vsim -coverage -l reg_1hot_chk.log -c test_bench -voptargs="+cover=bcesft" -assertdebug -do "coverage save -onexit reg_1hot_chk.ucdb; log -r /*;run -all" 
# Start time: 15:41:59 on Jul 09,2025
# ** Note: (vsim-3813) Design is being optimized due to module recompilation...
# //  Questa Intel Starter FPGA Edition-64
# //  Version 2023.3 linux_x86_64 Jul 17 2023
# //
# //  Copyright 1991-2023 Mentor Graphics Corporation
# //  All Rights Reserved.
# //
# //  QuestaSim and its associated documentation contain trade
# //  secrets and commercial or financial information that are the property of
# //  Mentor Graphics Corporation and are privileged, confidential,
# //  and exempt from disclosure under the Freedom of Information Act,
# //  5 U.S.C. Section 552. Furthermore, this information
# //  is prohibited from disclosure under the Trade Secrets Act,
# //  18 U.S.C. Section 1905.
# //
# Loading work.test_bench(fast)
# coverage save -onexit reg_1hot_chk.ucdb
#  log -r /*
# run -all
# 
# ====================================
# ==== Starting Test Suite ====
# ====================================
# 
# ====================================
# ====== Test Case: Check One Hot ====
# ====================================
# t=       100 [TB_WRITE]: addr=00000000 data=00000000
# t=       226 [TB_WRITE]: addr=00000014 data=00000000
# t=       376 [TB_WRITE]: addr=00000018 data=00000001
# t=       526 [TB_WRITE]: addr=00000004 data=00000000
# t=       676 [TB_WRITE]: addr=00000008 data=00000000
# t=       826 [TB_WRITE]: addr=0000000c data=00000000
# t=       976 [TB_WRITE]: addr=00000010 data=00000000
# 
# ===================[ ALL PASS CASES ]===================
# 
# --- PASS Case: TCR One-Hot Behavior ---
# t=      1126 [TB_WRITE]: addr=00000000 data=00000103
# t=      1425 [TB_READ]: addr=00000000 rdata=00000103
# t=      1425 PASS: TCR Expected=0x00000103, Actual=0x00000103
# ------------------------------------------------
# t=      1425 PASS: rdata = 00000103 at addr 00000000 is correct
# ------------------------------------------------
# 
# --- PASS Case: TIER One-Hot Behavior ---
# t=      1425 [TB_WRITE]: addr=00000014 data=00000001
# t=      1725 [TB_READ]: addr=00000014 rdata=00000001
# t=      1725 PASS: TIER Expected=0x00000001, Actual=0x00000001
# ------------------------------------------------
# t=      1725 PASS: rdata = 00000001 at addr 00000014 is correct
# ------------------------------------------------
# 
# --- PASS Case: TISR One-Hot Behavior ---
# t=      1725 [TB_WRITE]: addr=00000018 data=00000001
# t=      2025 [TB_READ]: addr=00000018 rdata=00000000
# t=      2025 PASS: TISR Expected=0x00000000, Actual=0x00000000
# ------------------------------------------------
# t=      2025 PASS: rdata = 00000000 at addr 00000018 is correct
# ------------------------------------------------
# 
# --- PASS Case: TDR1 Write/Read ---
# t=      2025 [TB_WRITE]: addr=00000008 data=87654321
# t=      2325 [TB_READ]: addr=00000008 rdata=87654321
# t=      2325 PASS: TDR1 Expected=0x87654321, Actual=0x87654321
# ------------------------------------------------
# t=      2325 PASS: rdata = 87654321 at addr 00000008 is correct
# ------------------------------------------------
# 
# --- PASS Case: TCMP0 Write/Read ---
# t=      2325 [TB_WRITE]: addr=0000000c data=aaaaaaaa
# t=      2625 [TB_READ]: addr=0000000c rdata=aaaaaaaa
# t=      2625 PASS: TCMP0 Expected=0xAAAAAAAA, Actual=0xaaaaaaaa
# ------------------------------------------------
# t=      2625 PASS: rdata = aaaaaaaa at addr 0000000c is correct
# ------------------------------------------------
# 
# --- PASS Case: TCMP1 Write/Read ---
# t=      2625 [TB_WRITE]: addr=00000010 data=55555555
# t=      2925 [TB_READ]: addr=00000010 rdata=55555555
# t=      2925 PASS: TCMP1 Expected=0x55555555, Actual=0x55555555
# ------------------------------------------------
# t=      2925 PASS: rdata = 55555555 at addr 00000010 is correct
# ------------------------------------------------
# 
# ======================================
# Test_result PASSED
# Total errors (including FAIL cases for coverage):           0
# ======================================
# ** Note: $finish    : ../tb/test_bench.v(119)
#    Time: 3025 ns  Iteration: 0  Instance: /test_bench
# Saving coverage database on exit...
# End time: 15:42:03 on Jul 09,2025, Elapsed time: 0:00:04
# Errors: 0, Warnings: 0
